
43450,39
79000,40
51306,39
24850,41
65145,43
23015,40
26000,40
13112,39
5436,39
103524,45
4185,42
26914,43
40507,40
26001,39
17789,39
16010,41
37610,43
22392,39
17718,40
46100,40
3933,38
11108,39
66370,43
43025,39
95817,43
30060,43
72938,44
25100,40
48472,39
81906,39
70000,38
80846,40
60085,44
37000,39
51112,40
19930,33
34235,43
92182,43
18914,33
27915,40
35140,39
82306,43
60325,43
16495,40
31932,39
32315,39
59337,39
26325,35
36610,43
12000,39
10715,42
47380,41
60867,43
20889,35
79382,43
52484,39
32221,39
17000,43
86450,43
35055,43
31140,40
29612,39
7592,36
46717,39
65700,39
37406,41
30460,43
17569,39
90200,43
54177,44
28690,34
44160,41
43865,40
33454,35
25541,39
29466,39
31000,34
26720,37
22560,40
81656,40
4150,39
50106,39
94250,43
1946,39
28500,39
28606,39
41988,39
21725,40
44882,39
8123,35
5436,39
45235,40
40281,39
40609,40
18348,40
98715,43
12484,39
70060,39
17337,40
41300,39
17330,39
58775,39
9687,39
9736,39
8700,39
11419,39
50362,43
45204,42
24004,39
14546,39
33700,39
43905,43
46530,43
58300,44
53027,39
34503,43
38200,41
45040,39
15088,39
17109,38
17300,39
35146,39
19620,41
22772,39
7879,40
11839,34
0,40
198925,40
55150,43
37392,43
26922,46
36849,36
20061,39
25416,43
80534,44
161810,43
7294,35
60396,34
36200,39
31652,34
43324,43
27628,41
34000,44
12413,39
30290,32
0,37
22420,39
55300,40
32000,40
22410,39
14000,36
5330,39
9600,36
46442,46
37300,42
80510,39
40218,37
11576,39
36060,41
48900,45
27340,40
19133,40
46100,39
49660,41
36193,41
24100,39
9800,39
51672,39
96150,44
110404,45
41100,39
29312,39
44400,39
37001,41
57981,39
7618,39
35379,41
47331,39
48637,40
0,39
5280,39
22814,33
18565,39
52450,43
55408,40
11032,34
29327,39
34336,39
13806,39
43331,42
625,39
67504,45
38112,39
63030,39
9569,37
62857,40
3058,39
25500,40
62030,39
76301,43

